<?xml version="1.0" encoding="UTF-8"?>
<svg width="24px" height="24px" viewBox="0 0 24 24" version="1.1" xmlns="http://www.w3.org/2000/svg" xmlns:xlink="http://www.w3.org/1999/xlink">
    <!-- Generator: Sketch 54.1 (76490) - https://sketchapp.com -->
    <title>contracts_active</title>
    <desc>Created with Sketch.</desc>
    <g id="contracts_active" stroke="none" stroke-width="1" fill="none" fill-rule="evenodd">
        <g>
            <rect id="bound" x="0" y="0" width="24" height="24"></rect>
            <g id="Group-12" transform="translate(4.000000, 4.000000)" fill="#72BE44" fill-rule="nonzero">
                <path d="M11.5555556,-7.10542736e-15 L14.2222222,-7.10542736e-15 C15.2040618,-7.10542736e-15 16,0.795938222 16,1.77777778 L16,10.887582 C16,11.318201 15.8437009,11.7341831 15.5601364,12.0582569 L13.2233674,14.72885 C13.0617309,14.9135773 12.7809476,14.9322962 12.5962202,14.7706597 C12.5813709,14.7576667 12.5674035,14.7436992 12.5544104,14.72885 L10.2176414,12.0582569 C9.93407689,11.7341831 9.77777778,11.318201 9.77777778,10.887582 L9.77777778,1.77777778 C9.77777778,0.795938222 10.573716,-7.10542736e-15 11.5555556,-7.10542736e-15 Z" id="Rectangle-102-Copy"></path>
                <path d="M2.03174603,-7.10542736e-15 L5.07936508,-7.10542736e-15 C6.20146743,-7.10542736e-15 7.11111111,0.795938222 7.11111111,1.77777778 L7.11111111,10.887582 C7.11111111,11.318201 6.93248356,11.7341831 6.6084098,12.0582569 L3.93781669,14.72885 C3.75308932,14.9135773 3.43219403,14.9322962 3.22107703,14.7706597 C3.20410646,14.7576667 3.18814364,14.7436992 3.17329443,14.72885 L0.502701308,12.0582569 C0.178627556,11.7341831 0,11.318201 0,10.887582 L0,1.77777778 C0,0.795938222 0.909643683,-7.10542736e-15 2.03174603,-7.10542736e-15 Z" id="Rectangle-102-Copy" fill-opacity="0.4"></path>
            </g>
        </g>
    </g>
</svg>