<?xml version="1.0" encoding="UTF-8"?>
<svg width="24px" height="24px" viewBox="0 0 24 24" version="1.1" xmlns="http://www.w3.org/2000/svg" xmlns:xlink="http://www.w3.org/1999/xlink">
    <!-- Generator: Sketch 54.1 (76490) - https://sketchapp.com -->
    <title>help_active</title>
    <desc>Created with Sketch.</desc>
    <g id="help_active" stroke="none" stroke-width="1" fill="none" fill-rule="evenodd">
        <g id="eeee">
            <rect id="bound" x="0" y="0" width="24" height="24"></rect>
            <g id="lifebuoy-(1)" transform="translate(4.000000, 4.000000)" fill="#72BE44" fill-rule="nonzero">
                <path d="M15.3909375,4.93853125 C13.7028125,0.8630625 9.0140625,-1.0790625 4.9385625,0.6090625 C0.86309375,2.2971875 -1.0790625,6.98590625 0.6090625,11.0614063 C2.2971875,15.1369375 6.98596875,17.0790625 11.0614062,15.3909063 C15.1369062,13.7028125 17.0790625,9.0140625 15.3909375,4.93853125 Z M4.46521875,9.4641875 L1.57309375,10.662125 C0.83915625,8.89015625 0.89434375,6.984875 1.57609375,5.339125 L4.46690625,6.53653125 C4.0919375,7.44175 4.0615625,8.489625 4.46521875,9.4641875 Z M10.6609063,1.57603125 L9.4635,4.46684375 C8.55834375,4.0919375 7.51040625,4.06153125 6.53584375,4.4651875 L5.337875,1.57309375 C7.10984375,0.83915625 9.015125,0.89434375 10.6609063,1.57603125 Z M5.339125,14.4239375 L6.53653125,11.533125 C7.4416875,11.9080625 8.489625,11.9384375 9.4641875,11.5347813 L10.6621563,14.426875 C8.8901875,15.160875 6.98490625,15.105625 5.339125,14.4239375 Z M9.06484375,10.5707812 C7.64734375,11.1579375 6.01640625,10.482375 5.42925,9.064875 C4.84209375,7.6473125 5.51765625,6.01634375 6.9351875,5.42921875 C8.3526875,4.84209375 9.983625,5.517625 10.5707813,6.93515625 C11.1579063,8.35265625 10.482375,9.983625 9.06484375,10.5707812 Z M14.4239375,10.660875 L11.533125,9.4634375 C11.9080625,8.55828125 11.9384688,7.510375 11.5347813,6.5358125 L14.426875,5.33784375 C15.160875,7.1098125 15.105625,9.0150625 14.4239375,10.660875 Z" id="Shape"></path>
            </g>
        </g>
    </g>
</svg>