<?xml version="1.0" encoding="UTF-8"?>
<svg width="24px" height="24px" viewBox="0 0 24 24" version="1.1" xmlns="http://www.w3.org/2000/svg" xmlns:xlink="http://www.w3.org/1999/xlink">
    <!-- Generator: Sketch 54.1 (76490) - https://sketchapp.com -->
    <title>history_inactive</title>
    <desc>Created with Sketch.</desc>
    <g id="history_inactive" stroke="none" stroke-width="1" fill="none" fill-rule="evenodd">
        <g>
            <rect id="bound" x="0" y="0" width="24" height="24"></rect>
            <g id="time-(1)" transform="translate(4.000000, 4.000000)" fill="#BFBFC2" fill-rule="nonzero">
                <path d="M8,0 C3.60595703,0 0,3.60595703 0,8 C0,12.394043 3.60595703,16 8,16 C9.39990234,16 10.7781982,15.6301269 11.9852295,14.9301758 L11.5146484,14.1190186 C10.4504394,14.736084 9.23498534,15.0625 8,15.0625 C4.12280275,15.0625 0.9375,11.8771973 0.9375,8 C0.9375,4.12280275 4.12280275,0.9375 8,0.9375 C11.8771973,0.9375 15.0625,4.12280275 15.0625,8 C15.0625,9.24694825 14.7362061,10.4645996 14.125,11.5224609 L14.125,10.375 L13.1875,10.375 L13.1875,13.1875 L16,13.1875 L16,12.25 L14.7805176,12.25 C15.5678711,10.9897461 16,9.493042 16,8 C16,3.60595703 12.394043,0 8,0 Z" id="Path"></path>
                <path d="M8,2.8125 C5.15686034,2.8125 2.8125,5.15686034 2.8125,8 C2.8125,10.8431397 5.15686034,13.1875 8,13.1875 C10.8431397,13.1875 13.1875,10.8431397 13.1875,8 C13.1875,5.15686034 10.8431397,2.8125 8,2.8125 Z M11.28125,8.46875 L7.53125,8.46875 L7.53125,4.6875 L8.46875,4.6875 L8.46875,7.53125 L11.28125,7.53125 L11.28125,8.46875 Z" id="Shape" fill-opacity="0.3"></path>
            </g>
        </g>
    </g>
</svg>