<?xml version="1.0" encoding="UTF-8"?>
<svg width="24px" height="24px" viewBox="0 0 24 24" version="1.1" xmlns="http://www.w3.org/2000/svg" xmlns:xlink="http://www.w3.org/1999/xlink">
    <!-- Generator: Sketch 54.1 (76490) - https://sketchapp.com -->
    <title>orders_active</title>
    <desc>Created with Sketch.</desc>
    <g id="orders_active" stroke="none" stroke-width="1" fill="none" fill-rule="evenodd">
        <g id="bbbb">
            <rect id="bound" x="0" y="0" width="24" height="24"></rect>
            <g id="Group" transform="translate(4.000000, 4.000000)" fill="#72BE44" fill-rule="nonzero">
                <path d="M6.76923077,0 L15.2307692,0 C15.6556036,0 16,0.44771525 16,1 L16,3 C16,3.55228475 15.6556036,4 15.2307692,4 L6.76923077,4 C6.34439635,4 6,3.55228475 6,3 L6,1 C6,0.44771525 6.34439635,0 6.76923077,0 Z M6.76923077,6 L15.2307692,6 C15.6556036,6 16,6.4477153 16,7 L16,9 C16,9.5522847 15.6556036,10 15.2307692,10 L6.76923077,10 C6.34439635,10 6,9.5522847 6,9 L6,7 C6,6.4477153 6.34439635,6 6.76923077,6 Z M6.76923077,12 L15.2307692,12 C15.6556036,12 16,12.4477153 16,13 L16,15 C16,15.5522847 15.6556036,16 15.2307692,16 L6.76923077,16 C6.34439635,16 6,15.5522847 6,15 L6,13 C6,12.4477153 6.34439635,12 6.76923077,12 Z" id="Combined-Shape"></path>
                <rect id="Rectangle-7-Copy-2" fill-opacity="0.4" x="0" y="0" width="4" height="16" rx="1"></rect>
            </g>
        </g>
    </g>
</svg>