<?xml version="1.0" encoding="UTF-8"?>
<svg width="24px" height="24px" viewBox="0 0 24 24" version="1.1" xmlns="http://www.w3.org/2000/svg" xmlns:xlink="http://www.w3.org/1999/xlink">
    <!-- Generator: Sketch 54.1 (76490) - https://sketchapp.com -->
    <title>transactions_inactive</title>
    <desc>Created with Sketch.</desc>
    <g id="transactions_inactive" stroke="none" stroke-width="1" fill="none" fill-rule="evenodd">
        <g>
            <rect id="bound" x="0" y="0" width="24" height="24"></rect>
            <g id="Group-13" transform="translate(4.000000, 4.000000)" fill="#BFBFC2" fill-rule="nonzero">
                <path d="M0.842105263,0.0458791261 L1.68421053,0.0458791261 C2.14929242,0.0458791261 2.52631579,0.422902495 2.52631579,0.887984389 L2.52631579,14.3616686 C2.52631579,14.8267505 2.14929242,15.2037739 1.68421053,15.2037739 L0.842105263,15.2037739 C0.377023368,15.2037739 0,14.8267505 0,14.3616686 L0,0.887984389 C0,0.422902495 0.377023368,0.0458791261 0.842105263,0.0458791261 Z M5.05263158,0.0458791261 L5.89473684,0.0458791261 C6.35981869,0.0458791261 6.73684211,0.422902495 6.73684211,0.887984389 L6.73684211,14.3616686 C6.73684211,14.8267505 6.35981869,15.2037739 5.89473684,15.2037739 L5.05263158,15.2037739 C4.58754968,15.2037739 4.21052632,14.8267505 4.21052632,14.3616686 L4.21052632,0.887984389 C4.21052632,0.422902495 4.58754968,0.0458791261 5.05263158,0.0458791261 Z" id="Combined-Shape"></path>
                <path d="M11.3794257,-1.77635684e-15 L11.9057415,-1.99840144e-15 C12.4580263,-2.09985451e-15 12.9057415,0.44771525 12.9057415,1 L12.9057415,14.1578947 C12.9057415,14.7101795 12.4580263,15.1578947 11.9057415,15.1578947 L11.3794257,15.1578947 C10.827141,15.1578947 10.3794257,14.7101795 10.3794257,14.1578947 L10.3794257,1 C10.3794257,0.44771525 10.827141,-1.67490378e-15 11.3794257,-1.77635684e-15 Z" id="Rectangle-Copy-2" fill-opacity="0.3" transform="translate(11.642584, 7.578947) rotate(-19.000000) translate(-11.642584, -7.578947) "></path>
            </g>
        </g>
    </g>
</svg>